\relax 
\providecommand\hyper@newdestlabel[2]{}
\providecommand\HyperFirstAtBeginDocument{\AtBeginDocument}
\HyperFirstAtBeginDocument{\ifx\hyper@anchor\@undefined
\global\let\oldcontentsline\contentsline
\gdef\contentsline#1#2#3#4{\oldcontentsline{#1}{#2}{#3}}
\global\let\oldnewlabel\newlabel
\gdef\newlabel#1#2{\newlabelxx{#1}#2}
\gdef\newlabelxx#1#2#3#4#5#6{\oldnewlabel{#1}{{#2}{#3}}}
\AtEndDocument{\ifx\hyper@anchor\@undefined
\let\contentsline\oldcontentsline
\let\newlabel\oldnewlabel
\fi}
\fi}
\global\let\hyper@last\relax 
\gdef\HyperFirstAtBeginDocument#1{#1}
\providecommand\HyField@AuxAddToFields[1]{}
\providecommand\HyField@AuxAddToCoFields[2]{}
\bibstyle{elsarticle-num}
\citation{sple}
\citation{REpartial}
\@writefile{toc}{\contentsline {section}{\numberline {1}Introduction}{1}{section.1}}
\citation{inter}
\citation{varmgmt}
\citation{taxonomy}
\citation{REpartial}
\citation{vision}
\citation{partial}
\citation{partialmodel12}
\citation{vision}
\@writefile{lof}{\contentsline {figure}{\numberline {1}{\ignorespaces Banking Machine SPLDC}}{3}{figure.1}}
\@writefile{toc}{\contentsline {section}{\numberline {2}Background}{4}{section.2}}
\@writefile{toc}{\contentsline {subsection}{\numberline {2.1}Software Product lines}{4}{subsection.2.1}}
\citation{vision}
\@writefile{toc}{\contentsline {subsection}{\numberline {2.2}Product level Properties}{6}{subsection.2.2}}
\@writefile{toc}{\contentsline {section}{\numberline {3}Preliminaries}{6}{section.3}}
\@writefile{toc}{\contentsline {subsection}{\numberline {3.1}SPLDC}{6}{subsection.3.1}}
\citation{vision}
\@writefile{toc}{\contentsline {subsection}{\numberline {3.2}Decision Model}{7}{subsection.3.2}}
\@writefile{toc}{\contentsline {subsection}{\numberline {3.3} SPLDC-level Properties}{7}{subsection.3.3}}
\citation{dsl}
\@writefile{toc}{\contentsline {section}{\numberline {4}Approach Overview}{8}{section.4}}
\citation{xtext}
\citation{alloy}
\citation{acceleo}
\citation{mof}
\@writefile{toc}{\contentsline {section}{\numberline {5}Implementation}{9}{section.5}}
\@writefile{lof}{\contentsline {figure}{\numberline {2}{\ignorespaces Banking machine example definition using DSL}}{10}{figure.2}}
\@writefile{lof}{\contentsline {figure}{\numberline {3}{\ignorespaces Checking properties of Banking machine example a) \textit  {Necessary All} b) \textit  {Necessary Some} c) \textit  {Possible All} d) \textit  {Possible some} }}{10}{figure.3}}
\@writefile{lof}{\contentsline {figure}{\numberline {4}{\ignorespaces Washing Machine SPLDC Example}}{11}{figure.4}}
\@writefile{toc}{\contentsline {section}{\numberline {6}Evaluation}{11}{section.6}}
\citation{partialmodel12}
\citation{REpartial}
\citation{partialmodel12}
\citation{taxonomy}
\citation{partialmodel12}
\citation{REpartial}
\@writefile{lof}{\contentsline {figure}{\numberline {5}{\ignorespaces Washing Machine SPLDC Example defined using DSL}}{12}{figure.5}}
\@writefile{toc}{\contentsline {section}{\numberline {7}Related Work}{12}{section.7}}
\@writefile{lof}{\contentsline {figure}{\numberline {6}{\ignorespaces Checking SPLDC level properties of washing machine example a) \textit  {Necessary All} b) \textit  {Necessary Some} c) \textit  {Possible All} d) \textit  {Possible Some}}}{13}{figure.6}}
\@writefile{lot}{\contentsline {table}{\numberline {1}{\ignorespaces Results of property analysis on washing machine example}}{13}{table.1}}
\citation{inter}
\citation{mixedcri}
\@writefile{toc}{\contentsline {section}{\numberline {8}Threats to validity}{14}{section.8}}
\@writefile{toc}{\contentsline {section}{\numberline {9}Discussion and Conclusion}{15}{section.9}}
\bibdata{00}
\bibcite{sple}{{1}{}{{}}{{}}}
\bibcite{REpartial}{{2}{}{{}}{{}}}
\bibcite{inter}{{3}{}{{}}{{}}}
\bibcite{varmgmt}{{4}{}{{}}{{}}}
\bibcite{taxonomy}{{5}{}{{}}{{}}}
\bibcite{vision}{{6}{}{{}}{{}}}
\bibcite{partial}{{7}{}{{}}{{}}}
\@writefile{toc}{\contentsline {section}{\numberline {10}Future work}{16}{section.10}}
\bibcite{partialmodel12}{{8}{}{{}}{{}}}
\bibcite{dsl}{{9}{}{{}}{{}}}
\bibcite{xtext}{{10}{}{{}}{{}}}
\bibcite{alloy}{{11}{}{{}}{{}}}
\bibcite{acceleo}{{12}{}{{}}{{}}}
\bibcite{mof}{{13}{}{{}}{{}}}
\bibcite{mixedcri}{{14}{}{{}}{{}}}
\providecommand\NAT@force@numbers{}\NAT@force@numbers
